01_simple_cpu/sim.vcd
$date
	Mon Sep  9 19:47:37 2024
$end
$version
	Icarus Verilog
$end
$timescale
	10ps
$end
$scope module riscv_tb $end
$var reg 1 ! clk $end
$var reg 1 " rstn $end
$var integer 32 # i [31:0] $end
$scope module simple_cpu $end
$var wire 32 $ alu_in1 [31:0] $end
$var wire 1 ! clk $end
$var wire 32 % instruction [31:0] $end
$var wire 1 " rstn $end
$var wire 32 & write_data [31:0] $end
$var wire 1 ' taken $end
$var wire 32 ( sextimm [31:0] $end
$var wire 32 ) rs2_out [31:0] $end
$var wire 5 * rs2 [4:0] $end
$var wire 32 + rs1_out [31:0] $end
$var wire 5 , rs1 [4:0] $end
$var wire 1 - reg_write $end
$var wire 32 . read_data [31:0] $end
$var wire 5 / rd [4:0] $end
$var wire 7 0 opcode [6:0] $end
$var wire 1 1 mem_write $end
$var wire 1 2 mem_to_reg $end
$var wire 1 3 mem_read $end
$var wire 32 4 jump_addr [31:0] $end
$var wire 32 5 jump_adder_in2 [31:0] $end
$var wire 32 6 jump_adder_in1 [31:0] $end
$var wire 2 7 jump [1:0] $end
$var wire 7 8 funct7 [6:0] $end
$var wire 3 9 funct3 [2:0] $end
$var wire 32 : branch_addr [31:0] $end
$var wire 1 ; branch $end
$var wire 1 < alu_src $end
$var wire 32 = alu_out [31:0] $end
$var wire 2 > alu_op [1:0] $end
$var wire 32 ? alu_in2 [31:0] $end
$var wire 4 @ alu_func [3:0] $end
$var wire 1 A alu_check $end
$var wire 32 B addr_imm [31:0] $end
$var wire 32 C PC_PLUS_4 [31:0] $end
$var wire 32 D NEXT_PC [31:0] $end
$var parameter 32 E DATA_WIDTH $end
$var parameter 32 F NUM_INSTS $end
$var reg 32 G PC [31:0] $end
$scope module m_ALU $end
$var wire 3 H funct3 [2:0] $end
$var wire 32 I in_a [31:0] $end
$var wire 32 J in_b [31:0] $end
$var wire 4 K alu_func [3:0] $end
$var parameter 32 L DATA_WIDTH $end
$var reg 1 A check $end
$var reg 32 M result [31:0] $end
$upscope $end
$scope module m_ALU_control $end
$var wire 3 N funct3 [2:0] $end
$var wire 7 O funct7 [6:0] $end
$var wire 4 P funct [3:0] $end
$var wire 2 Q alu_op [1:0] $end
$var reg 4 R alu_func [3:0] $end
$upscope $end
$scope module m_branch_addr_adder $end
$var wire 32 S in_a [31:0] $end
$var wire 32 T in_b [31:0] $end
$var parameter 32 U DATA_WIDTH $end
$var reg 32 V result [31:0] $end
$upscope $end
$scope module m_branch_control $end
$var wire 1 A check $end
$var wire 1 ; branch $end
$var reg 1 ' taken $end
$upscope $end
$scope module m_control $end
$var wire 7 W opcode [6:0] $end
$var wire 1 - reg_write $end
$var wire 1 1 mem_write $end
$var wire 1 2 mem_to_reg $end
$var wire 1 3 mem_read $end
$var wire 2 X jump [1:0] $end
$var wire 1 ; branch $end
$var wire 1 < alu_src $end
$var wire 2 Y alu_op [1:0] $end
$var reg 10 Z controls [9:0] $end
$upscope $end
$scope module m_data_memory $end
$var wire 32 [ address [31:0] $end
$var wire 1 ! clk $end
$var wire 2 \ maskmode [1:0] $end
$var wire 1 3 mem_read $end
$var wire 1 1 mem_write $end
$var wire 1 ] sext $end
$var wire 32 ^ write_data [31:0] $end
$var wire 8 _ address_internal [7:0] $end
$var parameter 32 ` DATA_WIDTH $end
$var parameter 32 a MEM_ADDR_SIZE $end
$var reg 32 b read_data [31:0] $end
$upscope $end
$scope module m_imm_generator $end
$var wire 32 c instruction [31:0] $end
$var wire 7 d opcode [6:0] $end
$var wire 3 e funct3 [2:0] $end
$var parameter 32 f DATA_WIDTH $end
$var reg 32 g sextimm [31:0] $end
$upscope $end
$scope module m_jump_addr_adder $end
$var wire 32 h in_b [31:0] $end
$var wire 32 i in_a [31:0] $end
$var parameter 32 j DATA_WIDTH $end
$var reg 32 k result [31:0] $end
$upscope $end
$scope module m_jump_in1_mux $end
$var wire 32 l in2 [31:0] $end
$var wire 1 m select $end
$var wire 32 n in1 [31:0] $end
$var parameter 32 o DATA_WIDTH $end
$var reg 32 p out [31:0] $end
$upscope $end
$scope module m_jump_in2_mux $end
$var wire 32 q in1 [31:0] $end
$var wire 32 r in2 [31:0] $end
$var wire 1 s select $end
$var parameter 32 t DATA_WIDTH $end
$var reg 32 u out [31:0] $end
$upscope $end
$scope module m_next_pc_adder $end
$var wire 32 v in_a [31:0] $end
$var wire 32 w in_b [31:0] $end
$var parameter 32 x DATA_WIDTH $end
$var reg 32 y result [31:0] $end
$upscope $end
$scope module m_next_pc_mux $end
$var wire 32 z in1 [31:0] $end
$var wire 32 { in2 [31:0] $end
$var wire 32 | in3 [31:0] $end
$var wire 32 } in4 [31:0] $end
$var wire 2 ~ select [1:0] $end
$var parameter 32 !" DATA_WIDTH $end
$var reg 32 "" out [31:0] $end
$upscope $end
$scope module m_register_file $end
$var wire 1 ! clk $end
$var wire 5 #" rd [4:0] $end
$var wire 1 - reg_write $end
$var wire 5 $" rs1 [4:0] $end
$var wire 32 %" rs1_out [31:0] $end
$var wire 5 &" rs2 [4:0] $end
$var wire 32 '" rs2_out [31:0] $end
$var wire 32 (" write_data [31:0] $end
$var parameter 32 )" ADDR_WIDTH $end
$var parameter 32 *" DATA_WIDTH $end
$upscope $end
$upscope $end
$upscope $end
$enddefinitions $end
$comment Show the parameter values. $end
$dumpall
b100000 *"
b101 )"
b100000 !"
b100000 x
b100000 t
b100000 o
b100000 j
b100000 f
b1000 a
b100000 `
b100000 U
b100000 L
b1000000 F
b100000 E
$end
#0
$dumpvars
bx ("
bx '"
bx &"
bx %"
bx $"
bx #"
bx ""
bx ~
bx }
bx |
bx {
bx z
bx y
b100 w
bx v
b0 u
xs
bx0 r
bx q
bx p
bx n
xm
bx l
bx k
bx i
b0 h
bx g
bx e
bx d
bx c
b0 b
bx _
bx ^
x]
bx \
bx [
bx Z
bx Y
bx X
bx W
bx V
bx T
bx S
bx R
bx Q
bx P
bx O
bx N
bx M
bx K
bx J
bx I
bx H
bx G
bx D
bx C
bx0 B
xA
bx @
bx ?
bx >
bx =
x<
x;
bx :
bx 9
bx 8
bx 7
bx 6
b0 5
bx 4
x3
x2
x1
bx 0
bx /
b0 .
x-
bx ,
bx +
bx *
bx )
bx (
x'
bx &
bx %
bx $
b1000000 #
0"
0!
$end
#2000
b11111111111111111111111111100000 5
b11111111111111111111111111100000 h
b11111111111111111111111111100000 u
0s
0m
b11100000 &
b11100000 ("
b0 7
b0 X
0;
03
02
b11 >
b11 Q
b11 Y
01
1<
1-
b0 ~
0'
b111000 _
b11011 Z
b0 \
0]
0A
b0 @
b0 K
b0 R
b11100000 =
b11100000 M
b11100000 [
b11111111111111111111111111000000 B
b11111111111111111111111111000000 r
b11111111111111111111111111100000 ?
b11111111111111111111111111100000 J
b11111111111111111111111111100000 :
b11111111111111111111111111100000 V
b11111111111111111111111111100000 |
b11111111111111111111111111100000 }
b10011 0
b10011 W
b1111111 8
b1111111 O
b1000 P
b0 9
b0 H
b0 N
b100000000 $
b100000000 I
b100000000 +
b100000000 n
b100000000 %"
b10 ,
b10 $"
b0 )
b0 ^
b0 '"
b0 *
b0 &"
b10 /
b10 #"
b11111111111111111111111111100000 (
b11111111111111111111111111100000 T
b11111111111111111111111111100000 g
b11111111111111111111111111100000 q
b10011 d
b0 e
b11100000 4
b11100000 k
b11100000 {
b100 D
b100 ""
b11111110000000010000000100010011 %
b11111110000000010000000100010011 c
b100000000 6
b100000000 i
b100000000 p
b100 C
b100 y
b100 z
b0 G
b0 S
b0 l
b0 v
1!
#4000
b11000000 &
b11000000 ("
b110000 _
b11000000 4
b11000000 k
b11000000 {
b11000000 =
b11000000 M
b11000000 [
b11100000 6
b11100000 i
b11100000 p
b11100000 $
b11100000 I
b11100000 +
b11100000 n
b11100000 %"
0!
#6000
b11111100 &
b11111100 ("
b111111 _
b0 >
b0 Q
b0 Y
11
0-
b11111100 =
b11111100 M
b11111100 [
b11111100 4
b11111100 k
b11111100 {
b110 Z
b10 \
b0 @
b0 K
b0 R
b111000 B
b111000 r
b11100 ?
b11100 J
b11100 5
b11100 h
b11100 u
b100011 0
b100011 W
b0 8
b0 O
b10 P
b10 9
b10 H
b10 N
b1000 *
b1000 &"
b11100 /
b11100 #"
b11100 (
b11100 T
b11100 g
b11100 q
b100011 d
b10 e
b1000 D
b1000 ""
b100000010010111000100011 %
b100000010010111000100011 c
b100000 :
b100000 V
b100000 |
b100000 }
b1000 C
b1000 y
b1000 z
b100 G
b100 S
b100 l
b100 v
1!
1"
#8000
0!
#10000
b11111000 &
b11111000 ("
b111110 _
b11111000 =
b11111000 M
b11111000 [
b11111000 4
b11111000 k
b11111000 {
b110000 B
b110000 r
b11000 ?
b11000 J
b11000 5
b11000 h
b11000 u
b11011000 )
b11011000 ^
b11011000 '"
b1 *
b1 &"
b11000 /
b11000 #"
b11000 (
b11000 T
b11000 g
b11000 q
b1100 D
b1100 ""
b100010010110000100011 %
b100010010110000100011 c
b100000 :
b100000 V
b100000 |
b100000 }
b1100 C
b1100 y
b1100 z
b1000 G
b1000 S
b1000 l
b1000 v
1!
#12000
0!
#14000
b11110000 &
b11110000 ("
b111100 _
b11 >
b11 Q
b11 Y
01
1-
b11110000 =
b11110000 M
b11110000 [
b11110000 4
b11110000 k
b11110000 {
b11011 Z
b0 \
b100000 B
b100000 r
b10000 ?
b10000 J
b10000 5
b10000 h
b10000 u
b10011 0
b10011 W
b0 P
b0 9
b0 H
b0 N
b0 )
b0 ^
b0 '"
b10000 *
b10000 &"
b1000 /
b1000 #"
b10000 (
b10000 T
b10000 g
b10000 q
b10011 d
b0 e
b10000 D
b10000 ""
b1000000010000010000010011 %
b1000000010000010000010011 c
b11100 :
b11100 V
b11100 |
b11100 }
b10000 C
b10000 y
b10000 z
b1100 G
b1100 S
b1100 l
b1100 v
1!
#16000
0!
#18000
b11101100 &
b11101100 ("
b0 >
b0 Q
b0 Y
11
0-
b111011 _
b11101100 4
b11101100 k
b11101100 {
b110 Z
b10 \
b0 @
b0 K
b0 R
b11101100 =
b11101100 M
b11101100 [
b11110000 6
b11110000 i
b11110000 p
b11111111111111111111111111111000 B
b11111111111111111111111111111000 r
b11111111111111111111111111111100 ?
b11111111111111111111111111111100 J
b11111111111111111111111111111100 5
b11111111111111111111111111111100 h
b11111111111111111111111111111100 u
b100011 0
b100011 W
b1111111 8
b1111111 O
b1010 P
b10 9
b10 H
b10 N
b11110000 $
b11110000 I
b11110000 +
b11110000 n
b11110000 %"
b1000 ,
b1000 $"
b10 )
b10 ^
b10 '"
b1010 *
b1010 &"
b11100 /
b11100 #"
b11111111111111111111111111111100 (
b11111111111111111111111111111100 T
b11111111111111111111111111111100 g
b11111111111111111111111111111100 q
b100011 d
b10 e
b10100 D
b10100 ""
b11111110101001000010111000100011 %
b11111110101001000010111000100011 c
b1100 :
b1100 V
b1100 |
b1100 }
b10100 C
b10100 y
b10100 z
b10000 G
b10000 S
b10000 l
b10000 v
1!
#20000
0!
#22000
b11110000 &
b11110000 ("
b111100 _
b11 >
b11 Q
b11 Y
01
1-
b11110000 =
b11110000 M
b11110000 [
b11110000 4
b11110000 k
b11110000 {
b11011 Z
b0 \
b0 B
b0 r
b0 ?
b0 J
b0 5
b0 h
b0 u
b10011 0
b10011 W
b0 8
b0 O
b0 P
b0 9
b0 H
b0 N
b0 )
b0 ^
b0 '"
b0 *
b0 &"
b1010 /
b1010 #"
b0 (
b0 T
b0 g
b0 q
b10011 d
b0 e
b11000 D
b11000 ""
b1000000010100010011 %
b1000000010100010011 c
b10100 :
b10100 V
b10100 |
b10100 }
b11000 C
b11000 y
b11000 z
b10100 G
b10100 S
b10100 l
b10100 v
1!
#24000
0!
#26000
b11101100 &
b11101100 ("
b111011 _
b11101100 =
b11101100 M
b11101100 [
b11101100 4
b11101100 k
b11101100 {
b1000 P
b11111111111111111111111111111000 B
b11111111111111111111111111111000 r
b11111111111111111111111111111100 ?
b11111111111111111111111111111100 J
b11111111111111111111111111111100 5
b11111111111111111111111111111100 h
b11111111111111111111111111111100 u
b1111111 8
b1111111 O
b1010 ,
b1010 $"
b11100 *
b11100 &"
b11111111111111111111111111111100 (
b11111111111111111111111111111100 T
b11111111111111111111111111111100 g
b11111111111111111111111111111100 q
b11100 D
b11100 ""
b11111111110001010000010100010011 %
b11111111110001010000010100010011 c
b10100 :
b10100 V
b10100 |
b10100 }
b11100 C
b11100 y
b11100 z
b11000 G
b11000 S
b11000 l
b11000 v
1!
#28000
b11101000 &
b11101000 ("
b111010 _
b11101000 4
b11101000 k
b11101000 {
b11101000 =
b11101000 M
b11101000 [
b11101100 6
b11101100 i
b11101100 p
b11101100 $
b11101100 I
b11101100 +
b11101100 n
b11101100 %"
0!
#30000
b10 .
b10 b
b10 &
b10 ("
b111011 _
13
12
b0 >
b0 Q
b0 Y
b11101100 =
b11101100 M
b11101100 [
b11101100 4
b11101100 k
b11101100 {
b1100011 Z
b10 \
b0 @
b0 K
b0 R
b0 B
b0 r
b0 ?
b0 J
b0 5
b0 h
b0 u
b11 0
b11 W
b0 8
b0 O
b10 P
b10 9
b10 H
b10 N
b0 *
b0 &"
b0 (
b0 T
b0 g
b0 q
b11 d
b10 e
b100000 D
b100000 ""
b1010010010100000011 %
b1010010010100000011 c
b11100 :
b11100 V
b11100 |
b11100 }
b100000 C
b100000 y
b100000 z
b11100 G
b11100 S
b11100 l
b11100 v
1!
#32000
b0 &
b0 ("
b0 .
b0 b
b0 _
b10 4
b10 k
b10 {
b10 =
b10 M
b10 [
b10 6
b10 i
b10 p
b10 $
b10 I
b10 +
b10 n
b10 %"
0!
#34000
03
02
b11 >
b11 Q
b11 Y
b0 4
b0 k
b0 {
b11011 Z
b0 \
b0 =
b0 M
b0 [
b0 6
b0 i
b0 p
b10011 0
b10011 W
b0 P
b0 9
b0 H
b0 N
b0 $
b0 I
b0 +
b0 n
b0 %"
b0 ,
b0 $"
b1011 /
b1011 #"
b10011 d
b0 e
b100100 D
b100100 ""
b10110010011 %
b10110010011 c
b100000 :
b100000 V
b100000 |
b100000 }
b100100 C
b100100 y
b100100 z
b100000 G
b100000 S
b100000 l
b100000 v
1!
#36000
0!
#38000
b1 @
b1 K
b1 R
b10 &
b10 ("
1;
b1 >
b1 Q
b1 Y
0<
0-
b0 _
b1110 4
b1110 k
b1110 {
b10001000 Z
b10 =
b10 M
b10 [
b10 6
b10 i
b10 p
b11000 B
b11000 r
b0 ?
b0 J
b1100 5
b1100 h
b1100 u
b1100011 0
b1100011 W
b10 $
b10 I
b10 +
b10 n
b10 %"
b1010 ,
b1010 $"
b1011 *
b1011 &"
b1100 /
b1100 #"
b1100 (
b1100 T
b1100 g
b1100 q
b1100011 d
b101000 D
b101000 ""
b101101010000011001100011 %
b101101010000011001100011 c
b110000 :
b110000 V
b110000 |
b110000 }
b101000 C
b101000 y
b101000 z
b100100 G
b100100 S
b100100 l
b100100 v
1!
#40000
0!
#42000
b0 @
b0 K
b0 R
b0 &
b0 ("
0;
b11 >
b11 Q
b11 Y
1<
1-
0A
b0 4
b0 k
b0 {
b11011 Z
b0 =
b0 M
b0 [
b0 6
b0 i
b0 p
b0 B
b0 r
b0 5
b0 h
b0 u
b10011 0
b10011 W
b0 $
b0 I
b0 +
b0 n
b0 %"
b0 ,
b0 $"
b0 *
b0 &"
b1010 /
b1010 #"
b0 (
b0 T
b0 g
b0 q
b10011 d
b101100 D
b101100 ""
b10100010011 %
b10100010011 c
b101000 :
b101000 V
b101000 |
b101000 }
b101100 C
b101100 y
b101100 z
b101000 G
b101000 S
b101000 l
b101000 v
1!
#44000
0!
#46000
b101100 6
b101100 i
b101100 p
b110000 &
b110000 ("
b1 ~
1s
1m
b1 @
b1 K
b1 R
b11000100 _
b11 7
b11 X
b1 >
b1 Q
b1 Y
11
0<
b11111111111111111111111100010000 =
b11111111111111111111111100010000 M
b11111111111111111111111100010000 [
b110100 4
b110100 k
b110100 {
b1100001101 Z
b1000 B
b1000 r
b11110000 ?
b11110000 J
b1000 5
b1000 h
b1000 u
b1101111 0
b1101111 W
b11110000 )
b11110000 ^
b11110000 '"
b1000 *
b1000 &"
b0 /
b0 #"
b100 (
b100 T
b100 g
b100 q
b1101111 d
b110100 D
b110100 ""
b100000000000000001101111 %
b100000000000000001101111 c
b110000 :
b110000 V
b110000 |
b110000 }
b110000 C
b110000 y
b110000 z
b101100 G
b101100 S
b101100 l
b101100 v
1!
#48000
b0 $
b0 I
b0 +
b0 n
b0 %"
0!
#50000
b0 ~
0s
0m
b0 @
b0 K
b0 R
0A
b0 _
b0 7
b0 X
b11 >
b11 Q
b11 Y
01
1<
b0 =
b0 M
b0 [
b0 5
b0 h
b0 u
b11011 Z
b0 ?
b0 J
b0 B
b0 r
b111000 D
b111000 ""
b10011 0
b10011 W
b0 )
b0 ^
b0 '"
b0 *
b0 &"
b0 (
b0 T
b0 g
b0 q
b10011 d
b0 4
b0 k
b0 {
b0 &
b0 ("
b10011 %
b10011 c
b110100 :
b110100 V
b110100 |
b110100 }
b0 6
b0 i
b0 p
b111000 C
b111000 y
b111000 z
b110100 G
b110100 S
b110100 l
b110100 v
1!
#52000
0!
#54000
b10 ~
1'
1A
b0 &
b0 ("
b1 @
b1 K
b1 R
b0 _
1;
b1 >
b1 Q
b1 Y
0<
0-
b0 =
b0 M
b0 [
b10000 4
b10000 k
b10000 {
b10001000 Z
b100000 B
b100000 r
b0 ?
b0 J
b10000 5
b10000 h
b10000 u
b1100011 0
b1100011 W
b1010 ,
b1010 $"
b10000 /
b10000 #"
b10000 (
b10000 T
b10000 g
b10000 q
b1100011 d
b1001000 D
b1001000 ""
b1010000100001100011 %
b1010000100001100011 c
b1001000 :
b1001000 V
b1001000 |
b1001000 }
b111100 C
b111100 y
b111100 z
b111000 G
b111000 S
b111000 l
b111000 v
1!
#56000
0!
#58000
b0 @
b0 K
b0 R
b0 ~
0'
b11110000 &
b11110000 ("
0;
b11 >
b11 Q
b11 Y
1<
1-
0A
b111100 _
b11110000 4
b11110000 k
b11110000 {
b11011 Z
b11110000 =
b11110000 M
b11110000 [
b11110000 6
b11110000 i
b11110000 p
b0 B
b0 r
b0 5
b0 h
b0 u
b10011 0
b10011 W
b11110000 $
b11110000 I
b11110000 +
b11110000 n
b11110000 %"
b1000 ,
b1000 $"
b1010 /
b1010 #"
b0 (
b0 T
b0 g
b0 q
b10011 d
b1001100 D
b1001100 ""
b1000000010100010011 %
b1000000010100010011 c
b1001000 :
b1001000 V
b1001000 |
b1001000 }
b1001100 C
b1001100 y
b1001100 z
b1001000 G
b1001000 S
b1001000 l
b1001000 v
1!
#60000
0!
#62000
b11101100 &
b11101100 ("
b111011 _
b11101100 =
b11101100 M
b11101100 [
b11101100 4
b11101100 k
b11101100 {
b1000 P
b11111111111111111111111111111000 B
b11111111111111111111111111111000 r
b11111111111111111111111111111100 ?
b11111111111111111111111111111100 J
b11111111111111111111111111111100 5
b11111111111111111111111111111100 h
b11111111111111111111111111111100 u
b1111111 8
b1111111 O
b1010 ,
b1010 $"
b11100 *
b11100 &"
b11111111111111111111111111111100 (
b11111111111111111111111111111100 T
b11111111111111111111111111111100 g
b11111111111111111111111111111100 q
b1010000 D
b1010000 ""
b11111111110001010000010100010011 %
b11111111110001010000010100010011 c
b1001000 :
b1001000 V
b1001000 |
b1001000 }
b1010000 C
b1010000 y
b1010000 z
b1001100 G
b1001100 S
b1001100 l
b1001100 v
1!
#64000
b11101000 &
b11101000 ("
b111010 _
b11101000 4
b11101000 k
b11101000 {
b11101000 =
b11101000 M
b11101000 [
b11101100 6
b11101100 i
b11101100 p
b11101100 $
b11101100 I
b11101100 +
b11101100 n
b11101100 %"
0!
#66000
b10 .
b10 b
b10 &
b10 ("
b111011 _
13
12
b0 >
b0 Q
b0 Y
b11101100 =
b11101100 M
b11101100 [
b11101100 4
b11101100 k
b11101100 {
b1100011 Z
b10 \
b0 @
b0 K
b0 R
b0 B
b0 r
b0 ?
b0 J
b0 5
b0 h
b0 u
b11 0
b11 W
b0 8
b0 O
b10 P
b10 9
b10 H
b10 N
b0 *
b0 &"
b0 (
b0 T
b0 g
b0 q
b11 d
b10 e
b1010100 D
b1010100 ""
b1010010010100000011 %
b1010010010100000011 c
b1010000 :
b1010000 V
b1010000 |
b1010000 }
b1010100 C
b1010100 y
b1010100 z
b1010000 G
b1010000 S
b1010000 l
b1010000 v
1!
#68000
b0 &
b0 ("
b0 .
b0 b
b0 _
b10 4
b10 k
b10 {
b10 =
b10 M
b10 [
b10 6
b10 i
b10 p
b10 $
b10 I
b10 +
b10 n
b10 %"
0!
#70000
b1 &
b1 ("
03
02
b11 >
b11 Q
b11 Y
b1 4
b1 k
b1 {
b11011 Z
b0 \
b1 =
b1 M
b1 [
b0 6
b0 i
b0 p
b10 B
b10 r
b1 ?
b1 J
b1 5
b1 h
b1 u
b10011 0
b10011 W
b0 P
b0 9
b0 H
b0 N
b0 $
b0 I
b0 +
b0 n
b0 %"
b0 ,
b0 $"
b11011000 )
b11011000 ^
b11011000 '"
b1 *
b1 &"
b1011 /
b1011 #"
b1 (
b1 T
b1 g
b1 q
b10011 d
b0 e
b1011000 D
b1011000 ""
b100000000010110010011 %
b100000000010110010011 c
b1010101 :
b1010101 V
b1010101 |
b1010101 }
b1011000 C
b1011000 y
b1011000 z
b1010100 G
b1010100 S
b1010100 l
b1010100 v
1!
#72000
0!
#74000
b1 @
b1 K
b1 R
b1 &
b1 ("
1;
b1 >
b1 Q
b1 Y
0<
0-
b0 _
b1110 4
b1110 k
b1110 {
b10001000 Z
b1 =
b1 M
b1 [
b10 6
b10 i
b10 p
b11000 B
b11000 r
b1 ?
b1 J
b1100 5
b1100 h
b1100 u
b1100011 0
b1100011 W
b10 $
b10 I
b10 +
b10 n
b10 %"
b1010 ,
b1010 $"
b1 )
b1 ^
b1 '"
b1011 *
b1011 &"
b1100 /
b1100 #"
b1100 (
b1100 T
b1100 g
b1100 q
b1100011 d
b1011100 D
b1011100 ""
b101101010000011001100011 %
b101101010000011001100011 c
b1100100 :
b1100100 V
b1100100 |
b1100100 }
b1011100 C
b1011100 y
b1011100 z
b1011000 G
b1011000 S
b1011000 l
b1011000 v
1!
#76000
0!
#78000
b0 @
b0 K
b0 R
b0 &
b0 ("
0;
b11 >
b11 Q
b11 Y
1<
1-
0A
b0 4
b0 k
b0 {
b11011 Z
b0 =
b0 M
b0 [
b0 6
b0 i
b0 p
b0 ?
b0 J
b0 B
b0 r
b0 5
b0 h
b0 u
b10011 0
b10011 W
b0 $
b0 I
b0 +
b0 n
b0 %"
b0 ,
b0 $"
b0 )
b0 ^
b0 '"
b0 *
b0 &"
b1010 /
b1010 #"
b0 (
b0 T
b0 g
b0 q
b10011 d
b1100000 D
b1100000 ""
b10100010011 %
b10100010011 c
b1011100 :
b1011100 V
b1011100 |
b1011100 }
b1100000 C
b1100000 y
b1100000 z
b1011100 G
b1011100 S
b1011100 l
b1011100 v
1!
#80000
0!
#82000
b1100000 6
b1100000 i
b1100000 p
b1100100 &
b1100100 ("
b1 ~
1s
1m
b1 @
b1 K
b1 R
b11000100 _
b11 7
b11 X
b1 >
b1 Q
b1 Y
11
0<
b11111111111111111111111100010000 =
b11111111111111111111111100010000 M
b11111111111111111111111100010000 [
b1101000 4
b1101000 k
b1101000 {
b1100001101 Z
b1000 B
b1000 r
b11110000 ?
b11110000 J
b1000 5
b1000 h
b1000 u
b1101111 0
b1101111 W
b11110000 )
b11110000 ^
b11110000 '"
b1000 *
b1000 &"
b0 /
b0 #"
b100 (
b100 T
b100 g
b100 q
b1101111 d
b1101000 D
b1101000 ""
b100000000000000001101111 %
b100000000000000001101111 c
b1100100 :
b1100100 V
b1100100 |
b1100100 }
b1100100 C
b1100100 y
b1100100 z
b1100000 G
b1100000 S
b1100000 l
b1100000 v
1!
#84000
b0 $
b0 I
b0 +
b0 n
b0 %"
0!
#86000
b0 ~
0s
0m
b0 @
b0 K
b0 R
0A
b0 _
b0 7
b0 X
b11 >
b11 Q
b11 Y
01
1<
b0 =
b0 M
b0 [
b0 5
b0 h
b0 u
b11011 Z
b0 ?
b0 J
b0 B
b0 r
b1101100 D
b1101100 ""
b10011 0
b10011 W
b0 )
b0 ^
b0 '"
b0 *
b0 &"
b0 (
b0 T
b0 g
b0 q
b10011 d
b0 4
b0 k
b0 {
b0 &
b0 ("
b10011 %
b10011 c
b1101000 :
b1101000 V
b1101000 |
b1101000 }
b0 6
b0 i
b0 p
b1101100 C
b1101100 y
b1101100 z
b1101000 G
b1101000 S
b1101000 l
b1101000 v
1!
#88000
0!
#90000
b10 ~
1'
1A
b0 &
b0 ("
b1 @
b1 K
b1 R
b0 _
1;
b1 >
b1 Q
b1 Y
0<
0-
b0 =
b0 M
b0 [
b10000 4
b10000 k
b10000 {
b10001000 Z
b100000 B
b100000 r
b0 ?
b0 J
b10000 5
b10000 h
b10000 u
b1100011 0
b1100011 W
b1010 ,
b1010 $"
b10000 /
b10000 #"
b10000 (
b10000 T
b10000 g
b10000 q
b1100011 d
b1111100 D
b1111100 ""
b1010000100001100011 %
b1010000100001100011 c
b1111100 :
b1111100 V
b1111100 |
b1111100 }
b1110000 C
b1110000 y
b1110000 z
b1101100 G
b1101100 S
b1101100 l
b1101100 v
1!
#92000
0!
#94000
b0 @
b0 K
b0 R
b0 ~
0'
b11110000 &
b11110000 ("
0;
b11 >
b11 Q
b11 Y
1<
1-
0A
b111100 _
b11110000 4
b11110000 k
b11110000 {
b11011 Z
b11110000 =
b11110000 M
b11110000 [
b11110000 6
b11110000 i
b11110000 p
b0 B
b0 r
b0 5
b0 h
b0 u
b10011 0
b10011 W
b11110000 $
b11110000 I
b11110000 +
b11110000 n
b11110000 %"
b1000 ,
b1000 $"
b1010 /
b1010 #"
b0 (
b0 T
b0 g
b0 q
b10011 d
b10000000 D
b10000000 ""
b1000000010100010011 %
b1000000010100010011 c
b1111100 :
b1111100 V
b1111100 |
b1111100 }
b10000000 C
b10000000 y
b10000000 z
b1111100 G
b1111100 S
b1111100 l
b1111100 v
1!
#96000
0!
#98000
b11101100 &
b11101100 ("
b111011 _
b11101100 =
b11101100 M
b11101100 [
b11101100 4
b11101100 k
b11101100 {
b1000 P
b11111111111111111111111111111000 B
b11111111111111111111111111111000 r
b11111111111111111111111111111100 ?
b11111111111111111111111111111100 J
b11111111111111111111111111111100 5
b11111111111111111111111111111100 h
b11111111111111111111111111111100 u
b1111111 8
b1111111 O
b1010 ,
b1010 $"
b11100 *
b11100 &"
b11111111111111111111111111111100 (
b11111111111111111111111111111100 T
b11111111111111111111111111111100 g
b11111111111111111111111111111100 q
b10000100 D
b10000100 ""
b11111111110001010000010100010011 %
b11111111110001010000010100010011 c
b1111100 :
b1111100 V
b1111100 |
b1111100 }
b10000100 C
b10000100 y
b10000100 z
b10000000 G
b10000000 S
b10000000 l
b10000000 v
1!
#100000
b11101000 &
b11101000 ("
b111010 _
b11101000 4
b11101000 k
b11101000 {
b11101000 =
b11101000 M
b11101000 [
b11101100 6
b11101100 i
b11101100 p
b11101100 $
b11101100 I
b11101100 +
b11101100 n
b11101100 %"
0!
#102000
b10 .
b10 b
b10 &
b10 ("
b111011 _
13
12
b0 >
b0 Q
b0 Y
b11101100 =
b11101100 M
b11101100 [
b11101100 4
b11101100 k
b11101100 {
b1100011 Z
b10 \
b0 @
b0 K
b0 R
b0 B
b0 r
b0 ?
b0 J
b0 5
b0 h
b0 u
b11 0
b11 W
b0 8
b0 O
b10 P
b10 9
b10 H
b10 N
b0 *
b0 &"
b0 (
b0 T
b0 g
b0 q
b11 d
b10 e
b10001000 D
b10001000 ""
b1010010010100000011 %
b1010010010100000011 c
b10000100 :
b10000100 V
b10000100 |
b10000100 }
b10001000 C
b10001000 y
b10001000 z
b10000100 G
b10000100 S
b10000100 l
b10000100 v
1!
#104000
b0 &
b0 ("
b0 .
b0 b
b0 _
b10 4
b10 k
b10 {
b10 =
b10 M
b10 [
b10 6
b10 i
b10 p
b10 $
b10 I
b10 +
b10 n
b10 %"
0!
#106000
b1 &
b1 ("
03
02
b11 >
b11 Q
b11 Y
b1 4
b1 k
b1 {
b11011 Z
b0 \
b1 =
b1 M
b1 [
b0 6
b0 i
b0 p
b10 B
b10 r
b1 ?
b1 J
b1 5
b1 h
b1 u
b10011 0
b10011 W
b0 P
b0 9
b0 H
b0 N
b0 $
b0 I
b0 +
b0 n
b0 %"
b0 ,
b0 $"
b11011000 )
b11011000 ^
b11011000 '"
b1 *
b1 &"
b1011 /
b1011 #"
b1 (
b1 T
b1 g
b1 q
b10011 d
b0 e
b10001100 D
b10001100 ""
b100000000010110010011 %
b100000000010110010011 c
b10001001 :
b10001001 V
b10001001 |
b10001001 }
b10001100 C
b10001100 y
b10001100 z
b10001000 G
b10001000 S
b10001000 l
b10001000 v
1!
#108000
0!
#110000
b1 @
b1 K
b1 R
b1 &
b1 ("
b10 >
b10 Q
b10 Y
0<
b10 4
b10 k
b10 {
b10001 Z
b1000 P
b1 =
b1 M
b1 [
b10 6
b10 i
b10 p
b0 B
b0 r
b1 ?
b1 J
b0 5
b0 h
b0 u
b110011 0
b110011 W
b100000 8
b100000 O
b10 $
b10 I
b10 +
b10 n
b10 %"
b1010 ,
b1010 $"
b1 )
b1 ^
b1 '"
b1011 *
b1011 &"
b1010 /
b1010 #"
b0 (
b0 T
b0 g
b0 q
b110011 d
b10010000 D
b10010000 ""
b1000000101101010000010100110011 %
b1000000101101010000010100110011 c
b10001100 :
b10001100 V
b10001100 |
b10001100 }
b10010000 C
b10010000 y
b10010000 z
b10001100 G
b10001100 S
b10001100 l
b10001100 v
1!
