01_simple_cpu/sim.vcd
$date
	Tue Sep 10 16:45:43 2024
$end
$version
	Icarus Verilog
$end
$timescale
	10ps
$end
$scope module riscv_tb $end
$var reg 1 ! clk $end
$var reg 1 " rstn $end
$var integer 32 # i [31:0] $end
$scope module simple_cpu $end
$var wire 32 $ alu_in1 [31:0] $end
$var wire 1 % chk_branch_not $end
$var wire 1 ! clk $end
$var wire 32 & instruction [31:0] $end
$var wire 1 " rstn $end
$var wire 32 ' write_data [31:0] $end
$var wire 1 ( taken $end
$var wire 32 ) sextimm [31:0] $end
$var wire 32 * rs2_out [31:0] $end
$var wire 5 + rs2 [4:0] $end
$var wire 32 , rs1_out [31:0] $end
$var wire 5 - rs1 [4:0] $end
$var wire 1 . reg_write $end
$var wire 32 / read_data [31:0] $end
$var wire 5 0 rd [4:0] $end
$var wire 7 1 opcode [6:0] $end
$var wire 1 2 mem_write $end
$var wire 1 3 mem_to_reg $end
$var wire 1 4 mem_read $end
$var wire 32 5 jump_addr [31:0] $end
$var wire 32 6 jump_adder_in1 [31:0] $end
$var wire 2 7 jump [1:0] $end
$var wire 7 8 funct7 [6:0] $end
$var wire 3 9 funct3 [2:0] $end
$var wire 32 : branch_addr [31:0] $end
$var wire 1 ; branch $end
$var wire 1 < alu_src $end
$var wire 32 = alu_out [31:0] $end
$var wire 2 > alu_op [1:0] $end
$var wire 32 ? alu_in2 [31:0] $end
$var wire 4 @ alu_func [3:0] $end
$var wire 1 A alu_check $end
$var wire 32 B PC_PLUS_4 [31:0] $end
$var wire 32 C NEXT_PC [31:0] $end
$var parameter 32 D DATA_WIDTH $end
$var parameter 32 E NUM_INSTS $end
$var reg 32 F PC [31:0] $end
$scope module m_ALU $end
$var wire 32 G in_a [31:0] $end
$var wire 32 H in_b [31:0] $end
$var wire 4 I alu_func [3:0] $end
$var parameter 32 J DATA_WIDTH $end
$var reg 1 A check $end
$var reg 32 K result [31:0] $end
$upscope $end
$scope module m_ALU_control $end
$var wire 3 L funct3 [2:0] $end
$var wire 7 M funct7 [6:0] $end
$var wire 4 N funct [3:0] $end
$var wire 2 O alu_op [1:0] $end
$var reg 4 P alu_func [3:0] $end
$upscope $end
$scope module m_branch_addr_adder $end
$var wire 32 Q in_a [31:0] $end
$var wire 32 R in_b [31:0] $end
$var parameter 32 S DATA_WIDTH $end
$var reg 32 T result [31:0] $end
$upscope $end
$scope module m_branch_control $end
$var wire 1 A check $end
$var wire 1 ; branch $end
$var reg 1 ( taken $end
$upscope $end
$scope module m_control $end
$var wire 7 U opcode [6:0] $end
$var wire 1 . reg_write $end
$var wire 1 2 mem_write $end
$var wire 1 3 mem_to_reg $end
$var wire 1 4 mem_read $end
$var wire 2 V jump [1:0] $end
$var wire 1 ; branch $end
$var wire 1 < alu_src $end
$var wire 2 W alu_op [1:0] $end
$var reg 10 X controls [9:0] $end
$upscope $end
$scope module m_data_memory $end
$var wire 32 Y address [31:0] $end
$var wire 1 ! clk $end
$var wire 2 Z maskmode [1:0] $end
$var wire 1 4 mem_read $end
$var wire 1 2 mem_write $end
$var wire 1 [ sext $end
$var wire 32 \ write_data [31:0] $end
$var wire 8 ] address_internal [7:0] $end
$var parameter 32 ^ DATA_WIDTH $end
$var parameter 32 _ MEM_ADDR_SIZE $end
$var reg 32 ` read_data [31:0] $end
$upscope $end
$scope module m_imm_generator $end
$var wire 32 a instruction [31:0] $end
$var wire 7 b opcode [6:0] $end
$var wire 3 c funct3 [2:0] $end
$var parameter 32 d DATA_WIDTH $end
$var reg 32 e sextimm [31:0] $end
$upscope $end
$scope module m_jump_addr_adder $end
$var wire 32 f in_b [31:0] $end
$var wire 32 g in_a [31:0] $end
$var parameter 32 h DATA_WIDTH $end
$var reg 32 i result [31:0] $end
$upscope $end
$scope module m_jump_in1_mux $end
$var wire 32 j in2 [31:0] $end
$var wire 1 k select $end
$var wire 32 l in1 [31:0] $end
$var parameter 32 m DATA_WIDTH $end
$var reg 32 n out [31:0] $end
$upscope $end
$scope module m_next_pc_adder $end
$var wire 32 o in_a [31:0] $end
$var wire 32 p in_b [31:0] $end
$var parameter 32 q DATA_WIDTH $end
$var reg 32 r result [31:0] $end
$upscope $end
$scope module m_next_pc_mux $end
$var wire 32 s in1 [31:0] $end
$var wire 32 t in2 [31:0] $end
$var wire 32 u in3 [31:0] $end
$var wire 32 v in4 [31:0] $end
$var wire 2 w select [1:0] $end
$var parameter 32 x DATA_WIDTH $end
$var reg 32 y out [31:0] $end
$upscope $end
$scope module m_register_file $end
$var wire 1 ! clk $end
$var wire 5 z rd [4:0] $end
$var wire 1 . reg_write $end
$var wire 5 { rs1 [4:0] $end
$var wire 32 | rs1_out [31:0] $end
$var wire 5 } rs2 [4:0] $end
$var wire 32 ~ rs2_out [31:0] $end
$var wire 32 !" write_data [31:0] $end
$var parameter 32 "" ADDR_WIDTH $end
$var parameter 32 #" DATA_WIDTH $end
$upscope $end
$upscope $end
$upscope $end
$enddefinitions $end
$comment Show the parameter values. $end
$dumpall
b100000 #"
b101 ""
b100000 x
b100000 q
b100000 m
b100000 h
b100000 d
b1000 _
b100000 ^
b100000 S
b100000 J
b1000000 E
b100000 D
$end
#0
$dumpvars
bx !"
bx ~
bx }
bx |
bx {
bx z
bx y
bx w
bx v
bx u
bx t
bx s
bx r
b100 p
bx o
bx n
bx l
xk
bx j
bx i
bx g
bx f
bx e
bx c
bx b
bx a
b0 `
bx ]
bx \
x[
bx Z
bx Y
bx X
bx W
bx V
bx U
bx T
bx R
bx Q
bx P
bx O
bx N
bx M
bx L
bx K
bx I
bx H
bx G
bx F
bx C
bx B
xA
bx @
bx ?
bx >
bx =
x<
x;
bx :
bx 9
bx 8
bx 7
bx 6
bx 5
x4
x3
x2
bx 1
bx 0
b0 /
x.
bx -
bx ,
bx +
bx *
bx )
x(
bx '
bx &
x%
bx $
b1000000 #
0"
0!
$end
#2000
0k
b0 w
0%
0(
b11100000 '
b11100000 !"
b0 7
b0 V
0;
04
03
b11 >
b11 O
b11 W
02
1<
1.
0A
b111000 ]
b11011 X
b0 Z
0[
b0 @
b0 I
b0 P
b11100000 =
b11100000 K
b11100000 Y
b11111111111111111111111111100000 ?
b11111111111111111111111111100000 H
b11111111111111111111111111100000 :
b11111111111111111111111111100000 T
b11111111111111111111111111100000 u
b11111111111111111111111111100000 v
b11100000 5
b11100000 i
b11100000 t
b10011 1
b10011 U
b1111111 8
b1111111 M
b1000 N
b0 9
b0 L
b100000000 $
b100000000 G
b100000000 ,
b100000000 l
b100000000 |
b10 -
b10 {
b0 *
b0 \
b0 ~
b0 +
b0 }
b10 0
b10 z
b11111111111111111111111111100000 )
b11111111111111111111111111100000 R
b11111111111111111111111111100000 e
b11111111111111111111111111100000 f
b10011 b
b0 c
b100 C
b100 y
b11111110000000010000000100010011 &
b11111110000000010000000100010011 a
b100000000 6
b100000000 g
b100000000 n
b100 B
b100 r
b100 s
b0 F
b0 Q
b0 j
b0 o
1!
#4000
b11000000 '
b11000000 !"
b110000 ]
b11000000 5
b11000000 i
b11000000 t
b11000000 =
b11000000 K
b11000000 Y
b11100000 6
b11100000 g
b11100000 n
b11100000 $
b11100000 G
b11100000 ,
b11100000 l
b11100000 |
0!
#6000
b11111100 '
b11111100 !"
b111111 ]
b0 >
b0 O
b0 W
12
0.
b11111100 =
b11111100 K
b11111100 Y
b110 X
b10 Z
b0 @
b0 I
b0 P
b11100 ?
b11100 H
b11111100 5
b11111100 i
b11111100 t
b100011 1
b100011 U
b0 8
b0 M
b10 N
b10 9
b10 L
b1000 +
b1000 }
b11100 0
b11100 z
b11100 )
b11100 R
b11100 e
b11100 f
b100011 b
b10 c
b1000 C
b1000 y
b100000010010111000100011 &
b100000010010111000100011 a
b100000 :
b100000 T
b100000 u
b100000 v
b1000 B
b1000 r
b1000 s
b100 F
b100 Q
b100 j
b100 o
1!
1"
#8000
0!
#10000
b11111000 '
b11111000 !"
b111110 ]
b11111000 =
b11111000 K
b11111000 Y
b11000 ?
b11000 H
b11111000 5
b11111000 i
b11111000 t
b11011000 *
b11011000 \
b11011000 ~
b1 +
b1 }
b11000 0
b11000 z
b11000 )
b11000 R
b11000 e
b11000 f
b1100 C
b1100 y
b100010010110000100011 &
b100010010110000100011 a
b100000 :
b100000 T
b100000 u
b100000 v
b1100 B
b1100 r
b1100 s
b1000 F
b1000 Q
b1000 j
b1000 o
1!
#12000
0!
#14000
b11110000 '
b11110000 !"
b111100 ]
b11 >
b11 O
b11 W
02
1.
b11110000 =
b11110000 K
b11110000 Y
b11011 X
b0 Z
b10000 ?
b10000 H
b11110000 5
b11110000 i
b11110000 t
b10011 1
b10011 U
b0 N
b0 9
b0 L
b0 *
b0 \
b0 ~
b10000 +
b10000 }
b1000 0
b1000 z
b10000 )
b10000 R
b10000 e
b10000 f
b10011 b
b0 c
b10000 C
b10000 y
b1000000010000010000010011 &
b1000000010000010000010011 a
b11100 :
b11100 T
b11100 u
b11100 v
b10000 B
b10000 r
b10000 s
b1100 F
b1100 Q
b1100 j
b1100 o
1!
#16000
0!
#18000
b11101100 '
b11101100 !"
b0 >
b0 O
b0 W
12
0.
b111011 ]
b110 X
b10 Z
b0 @
b0 I
b0 P
b11101100 =
b11101100 K
b11101100 Y
b11110000 6
b11110000 g
b11110000 n
b11111111111111111111111111111100 ?
b11111111111111111111111111111100 H
b11101100 5
b11101100 i
b11101100 t
b100011 1
b100011 U
b1111111 8
b1111111 M
b1010 N
b10 9
b10 L
b11110000 $
b11110000 G
b11110000 ,
b11110000 l
b11110000 |
b1000 -
b1000 {
b10 *
b10 \
b10 ~
b1010 +
b1010 }
b11100 0
b11100 z
b11111111111111111111111111111100 )
b11111111111111111111111111111100 R
b11111111111111111111111111111100 e
b11111111111111111111111111111100 f
b100011 b
b10 c
b10100 C
b10100 y
b11111110101001000010111000100011 &
b11111110101001000010111000100011 a
b1100 :
b1100 T
b1100 u
b1100 v
b10100 B
b10100 r
b10100 s
b10000 F
b10000 Q
b10000 j
b10000 o
1!
#20000
0!
#22000
b11110000 '
b11110000 !"
b111100 ]
b11 >
b11 O
b11 W
02
1.
b11110000 =
b11110000 K
b11110000 Y
b11011 X
b0 Z
b0 ?
b0 H
b11110000 5
b11110000 i
b11110000 t
b10011 1
b10011 U
b0 8
b0 M
b0 N
b0 9
b0 L
b0 *
b0 \
b0 ~
b0 +
b0 }
b1010 0
b1010 z
b0 )
b0 R
b0 e
b0 f
b10011 b
b0 c
b11000 C
b11000 y
b1000000010100010011 &
b1000000010100010011 a
b10100 :
b10100 T
b10100 u
b10100 v
b11000 B
b11000 r
b11000 s
b10100 F
b10100 Q
b10100 j
b10100 o
1!
#24000
0!
#26000
b11101100 '
b11101100 !"
b111011 ]
b11101100 =
b11101100 K
b11101100 Y
b1000 N
b11111111111111111111111111111100 ?
b11111111111111111111111111111100 H
b11101100 5
b11101100 i
b11101100 t
b1111111 8
b1111111 M
b1010 -
b1010 {
b11100 +
b11100 }
b11111111111111111111111111111100 )
b11111111111111111111111111111100 R
b11111111111111111111111111111100 e
b11111111111111111111111111111100 f
b11100 C
b11100 y
b11111111110001010000010100010011 &
b11111111110001010000010100010011 a
b10100 :
b10100 T
b10100 u
b10100 v
b11100 B
b11100 r
b11100 s
b11000 F
b11000 Q
b11000 j
b11000 o
1!
#28000
b11101000 '
b11101000 !"
b111010 ]
b11101000 5
b11101000 i
b11101000 t
b11101000 =
b11101000 K
b11101000 Y
b11101100 6
b11101100 g
b11101100 n
b11101100 $
b11101100 G
b11101100 ,
b11101100 l
b11101100 |
0!
#30000
b10 /
b10 `
b10 '
b10 !"
b111011 ]
14
13
b0 >
b0 O
b0 W
b11101100 =
b11101100 K
b11101100 Y
b1100011 X
b10 Z
b0 @
b0 I
b0 P
b0 ?
b0 H
b11101100 5
b11101100 i
b11101100 t
b11 1
b11 U
b0 8
b0 M
b10 N
b10 9
b10 L
b0 +
b0 }
b0 )
b0 R
b0 e
b0 f
b11 b
b10 c
b100000 C
b100000 y
b1010010010100000011 &
b1010010010100000011 a
b11100 :
b11100 T
b11100 u
b11100 v
b100000 B
b100000 r
b100000 s
b11100 F
b11100 Q
b11100 j
b11100 o
1!
#32000
b0 '
b0 !"
b0 /
b0 `
b0 ]
b10 5
b10 i
b10 t
b10 =
b10 K
b10 Y
b10 6
b10 g
b10 n
b10 $
b10 G
b10 ,
b10 l
b10 |
0!
#34000
04
03
b11 >
b11 O
b11 W
b0 5
b0 i
b0 t
b11011 X
b0 Z
b0 =
b0 K
b0 Y
b0 6
b0 g
b0 n
b10011 1
b10011 U
b0 N
b0 9
b0 L
b0 $
b0 G
b0 ,
b0 l
b0 |
b0 -
b0 {
b1011 0
b1011 z
b10011 b
b0 c
b100100 C
b100100 y
b10110010011 &
b10110010011 a
b100000 :
b100000 T
b100000 u
b100000 v
b100100 B
b100100 r
b100100 s
b100000 F
b100000 Q
b100000 j
b100000 o
1!
#36000
0!
#38000
b1 @
b1 I
b1 P
b10 '
b10 !"
1;
b1 >
b1 O
b1 W
0<
0.
b0 ]
b10001000 X
b10 =
b10 K
b10 Y
b10 6
b10 g
b10 n
b0 ?
b0 H
b1110 5
b1110 i
b1110 t
b1100011 1
b1100011 U
b10 $
b10 G
b10 ,
b10 l
b10 |
b1010 -
b1010 {
b1011 +
b1011 }
b1100 0
b1100 z
b1100 )
b1100 R
b1100 e
b1100 f
b1100011 b
b101000 C
b101000 y
b101101010000011001100011 &
b101101010000011001100011 a
b110000 :
b110000 T
b110000 u
b110000 v
b101000 B
b101000 r
b101000 s
b100100 F
b100100 Q
b100100 j
b100100 o
1!
#40000
0!
#42000
b0 @
b0 I
b0 P
b0 '
b0 !"
0;
b11 >
b11 O
b11 W
1<
1.
0A
b11011 X
b0 =
b0 K
b0 Y
b0 6
b0 g
b0 n
b0 5
b0 i
b0 t
b10011 1
b10011 U
b0 $
b0 G
b0 ,
b0 l
b0 |
b0 -
b0 {
b0 +
b0 }
b1010 0
b1010 z
b0 )
b0 R
b0 e
b0 f
b10011 b
b101100 C
b101100 y
b10100010011 &
b10100010011 a
b101000 :
b101000 T
b101000 u
b101000 v
b101100 B
b101100 r
b101100 s
b101000 F
b101000 Q
b101000 j
b101000 o
1!
#44000
0!
#46000
b101100 6
b101100 g
b101100 n
b110000 '
b110000 !"
b1 w
1k
b1 @
b1 I
b1 P
b11000100 ]
b11 7
b11 V
b1 >
b1 O
b1 W
12
0<
b11111111111111111111111100010000 =
b11111111111111111111111100010000 K
b11111111111111111111111100010000 Y
b1100001101 X
b11110000 ?
b11110000 H
b110100 5
b110100 i
b110100 t
b1101111 1
b1101111 U
b11110000 *
b11110000 \
b11110000 ~
b1000 +
b1000 }
b0 0
b0 z
b1000 )
b1000 R
b1000 e
b1000 f
b1101111 b
b110100 C
b110100 y
b100000000000000001101111 &
b100000000000000001101111 a
b110100 :
b110100 T
b110100 u
b110100 v
b110000 B
b110000 r
b110000 s
b101100 F
b101100 Q
b101100 j
b101100 o
1!
#48000
b0 $
b0 G
b0 ,
b0 l
b0 |
0!
#50000
b0 w
0k
b0 @
b0 I
b0 P
0A
b0 ]
b0 7
b0 V
b11 >
b11 O
b11 W
02
1<
b0 =
b0 K
b0 Y
b11011 X
b0 ?
b0 H
b111000 C
b111000 y
b10011 1
b10011 U
b0 *
b0 \
b0 ~
b0 +
b0 }
b0 )
b0 R
b0 e
b0 f
b10011 b
b0 5
b0 i
b0 t
b0 '
b0 !"
b10011 &
b10011 a
b110100 :
b110100 T
b110100 u
b110100 v
b0 6
b0 g
b0 n
b111000 B
b111000 r
b111000 s
b110100 F
b110100 Q
b110100 j
b110100 o
1!
#52000
0!
#54000
b10 w
1%
1(
1A
b0 '
b0 !"
b1 @
b1 I
b1 P
b0 ]
1;
b1 >
b1 O
b1 W
0<
0.
b0 =
b0 K
b0 Y
b10001000 X
b0 ?
b0 H
b10000 5
b10000 i
b10000 t
b1100011 1
b1100011 U
b1010 -
b1010 {
b10000 0
b10000 z
b10000 )
b10000 R
b10000 e
b10000 f
b1100011 b
b1001000 C
b1001000 y
b1010000100001100011 &
b1010000100001100011 a
b1001000 :
b1001000 T
b1001000 u
b1001000 v
b111100 B
b111100 r
b111100 s
b111000 F
b111000 Q
b111000 j
b111000 o
1!
#56000
0!
#58000
b0 w
0%
b0 @
b0 I
b0 P
0(
b11110000 '
b11110000 !"
0;
b11 >
b11 O
b11 W
1<
1.
0A
b111100 ]
b11011 X
b11110000 =
b11110000 K
b11110000 Y
b11110000 6
b11110000 g
b11110000 n
b11110000 5
b11110000 i
b11110000 t
b10011 1
b10011 U
b11110000 $
b11110000 G
b11110000 ,
b11110000 l
b11110000 |
b1000 -
b1000 {
b1010 0
b1010 z
b0 )
b0 R
b0 e
b0 f
b10011 b
b1001100 C
b1001100 y
b1000000010100010011 &
b1000000010100010011 a
b1001000 :
b1001000 T
b1001000 u
b1001000 v
b1001100 B
b1001100 r
b1001100 s
b1001000 F
b1001000 Q
b1001000 j
b1001000 o
1!
#60000
0!
#62000
b11101100 '
b11101100 !"
b111011 ]
b11101100 =
b11101100 K
b11101100 Y
b1000 N
b11111111111111111111111111111100 ?
b11111111111111111111111111111100 H
b11101100 5
b11101100 i
b11101100 t
b1111111 8
b1111111 M
b1010 -
b1010 {
b11100 +
b11100 }
b11111111111111111111111111111100 )
b11111111111111111111111111111100 R
b11111111111111111111111111111100 e
b11111111111111111111111111111100 f
b1010000 C
b1010000 y
b11111111110001010000010100010011 &
b11111111110001010000010100010011 a
b1001000 :
b1001000 T
b1001000 u
b1001000 v
b1010000 B
b1010000 r
b1010000 s
b1001100 F
b1001100 Q
b1001100 j
b1001100 o
1!
#64000
b11101000 '
b11101000 !"
b111010 ]
b11101000 5
b11101000 i
b11101000 t
b11101000 =
b11101000 K
b11101000 Y
b11101100 6
b11101100 g
b11101100 n
b11101100 $
b11101100 G
b11101100 ,
b11101100 l
b11101100 |
0!
#66000
b10 /
b10 `
b10 '
b10 !"
b111011 ]
14
13
b0 >
b0 O
b0 W
b11101100 =
b11101100 K
b11101100 Y
b1100011 X
b10 Z
b0 @
b0 I
b0 P
b0 ?
b0 H
b11101100 5
b11101100 i
b11101100 t
b11 1
b11 U
b0 8
b0 M
b10 N
b10 9
b10 L
b0 +
b0 }
b0 )
b0 R
b0 e
b0 f
b11 b
b10 c
b1010100 C
b1010100 y
b1010010010100000011 &
b1010010010100000011 a
b1010000 :
b1010000 T
b1010000 u
b1010000 v
b1010100 B
b1010100 r
b1010100 s
b1010000 F
b1010000 Q
b1010000 j
b1010000 o
1!
#68000
b0 '
b0 !"
b0 /
b0 `
b0 ]
b10 5
b10 i
b10 t
b10 =
b10 K
b10 Y
b10 6
b10 g
b10 n
b10 $
b10 G
b10 ,
b10 l
b10 |
0!
#70000
b1 '
b1 !"
04
03
b11 >
b11 O
b11 W
b11011 X
b0 Z
b1 =
b1 K
b1 Y
b0 6
b0 g
b0 n
b1 ?
b1 H
b1 5
b1 i
b1 t
b10011 1
b10011 U
b0 N
b0 9
b0 L
b0 $
b0 G
b0 ,
b0 l
b0 |
b0 -
b0 {
b11011000 *
b11011000 \
b11011000 ~
b1 +
b1 }
b1011 0
b1011 z
b1 )
b1 R
b1 e
b1 f
b10011 b
b0 c
b1011000 C
b1011000 y
b100000000010110010011 &
b100000000010110010011 a
b1010101 :
b1010101 T
b1010101 u
b1010101 v
b1011000 B
b1011000 r
b1011000 s
b1010100 F
b1010100 Q
b1010100 j
b1010100 o
1!
#72000
0!
#74000
b1 @
b1 I
b1 P
b1 '
b1 !"
1;
b1 >
b1 O
b1 W
0<
0.
b0 ]
b10001000 X
b1 =
b1 K
b1 Y
b10 6
b10 g
b10 n
b1 ?
b1 H
b1110 5
b1110 i
b1110 t
b1100011 1
b1100011 U
b10 $
b10 G
b10 ,
b10 l
b10 |
b1010 -
b1010 {
b1 *
b1 \
b1 ~
b1011 +
b1011 }
b1100 0
b1100 z
b1100 )
b1100 R
b1100 e
b1100 f
b1100011 b
b1011100 C
b1011100 y
b101101010000011001100011 &
b101101010000011001100011 a
b1100100 :
b1100100 T
b1100100 u
b1100100 v
b1011100 B
b1011100 r
b1011100 s
b1011000 F
b1011000 Q
b1011000 j
b1011000 o
1!
#76000
0!
#78000
b0 @
b0 I
b0 P
b0 '
b0 !"
0;
b11 >
b11 O
b11 W
1<
1.
0A
b11011 X
b0 =
b0 K
b0 Y
b0 6
b0 g
b0 n
b0 ?
b0 H
b0 5
b0 i
b0 t
b10011 1
b10011 U
b0 $
b0 G
b0 ,
b0 l
b0 |
b0 -
b0 {
b0 *
b0 \
b0 ~
b0 +
b0 }
b1010 0
b1010 z
b0 )
b0 R
b0 e
b0 f
b10011 b
b1100000 C
b1100000 y
b10100010011 &
b10100010011 a
b1011100 :
b1011100 T
b1011100 u
b1011100 v
b1100000 B
b1100000 r
b1100000 s
b1011100 F
b1011100 Q
b1011100 j
b1011100 o
1!
#80000
0!
#82000
b1100000 6
b1100000 g
b1100000 n
b1100100 '
b1100100 !"
b1 w
1k
b1 @
b1 I
b1 P
b11000100 ]
b11 7
b11 V
b1 >
b1 O
b1 W
12
0<
b11111111111111111111111100010000 =
b11111111111111111111111100010000 K
b11111111111111111111111100010000 Y
b1100001101 X
b11110000 ?
b11110000 H
b1101000 5
b1101000 i
b1101000 t
b1101111 1
b1101111 U
b11110000 *
b11110000 \
b11110000 ~
b1000 +
b1000 }
b0 0
b0 z
b1000 )
b1000 R
b1000 e
b1000 f
b1101111 b
b1101000 C
b1101000 y
b100000000000000001101111 &
b100000000000000001101111 a
b1101000 :
b1101000 T
b1101000 u
b1101000 v
b1100100 B
b1100100 r
b1100100 s
b1100000 F
b1100000 Q
b1100000 j
b1100000 o
1!
#84000
b0 $
b0 G
b0 ,
b0 l
b0 |
0!
#86000
b0 w
0k
b0 @
b0 I
b0 P
0A
b0 ]
b0 7
b0 V
b11 >
b11 O
b11 W
02
1<
b0 =
b0 K
b0 Y
b11011 X
b0 ?
b0 H
b1101100 C
b1101100 y
b10011 1
b10011 U
b0 *
b0 \
b0 ~
b0 +
b0 }
b0 )
b0 R
b0 e
b0 f
b10011 b
b0 5
b0 i
b0 t
b0 '
b0 !"
b10011 &
b10011 a
b1101000 :
b1101000 T
b1101000 u
b1101000 v
b0 6
b0 g
b0 n
b1101100 B
b1101100 r
b1101100 s
b1101000 F
b1101000 Q
b1101000 j
b1101000 o
1!
#88000
0!
#90000
b10 w
1%
1(
1A
b0 '
b0 !"
b1 @
b1 I
b1 P
b0 ]
1;
b1 >
b1 O
b1 W
0<
0.
b0 =
b0 K
b0 Y
b10001000 X
b0 ?
b0 H
b10000 5
b10000 i
b10000 t
b1100011 1
b1100011 U
b1010 -
b1010 {
b10000 0
b10000 z
b10000 )
b10000 R
b10000 e
b10000 f
b1100011 b
b1111100 C
b1111100 y
b1010000100001100011 &
b1010000100001100011 a
b1111100 :
b1111100 T
b1111100 u
b1111100 v
b1110000 B
b1110000 r
b1110000 s
b1101100 F
b1101100 Q
b1101100 j
b1101100 o
1!
#92000
0!
#94000
b0 w
0%
b0 @
b0 I
b0 P
0(
b11110000 '
b11110000 !"
0;
b11 >
b11 O
b11 W
1<
1.
0A
b111100 ]
b11011 X
b11110000 =
b11110000 K
b11110000 Y
b11110000 6
b11110000 g
b11110000 n
b11110000 5
b11110000 i
b11110000 t
b10011 1
b10011 U
b11110000 $
b11110000 G
b11110000 ,
b11110000 l
b11110000 |
b1000 -
b1000 {
b1010 0
b1010 z
b0 )
b0 R
b0 e
b0 f
b10011 b
b10000000 C
b10000000 y
b1000000010100010011 &
b1000000010100010011 a
b1111100 :
b1111100 T
b1111100 u
b1111100 v
b10000000 B
b10000000 r
b10000000 s
b1111100 F
b1111100 Q
b1111100 j
b1111100 o
1!
#96000
0!
#98000
b11101100 '
b11101100 !"
b111011 ]
b11101100 =
b11101100 K
b11101100 Y
b1000 N
b11111111111111111111111111111100 ?
b11111111111111111111111111111100 H
b11101100 5
b11101100 i
b11101100 t
b1111111 8
b1111111 M
b1010 -
b1010 {
b11100 +
b11100 }
b11111111111111111111111111111100 )
b11111111111111111111111111111100 R
b11111111111111111111111111111100 e
b11111111111111111111111111111100 f
b10000100 C
b10000100 y
b11111111110001010000010100010011 &
b11111111110001010000010100010011 a
b1111100 :
b1111100 T
b1111100 u
b1111100 v
b10000100 B
b10000100 r
b10000100 s
b10000000 F
b10000000 Q
b10000000 j
b10000000 o
1!
#100000
b11101000 '
b11101000 !"
b111010 ]
b11101000 5
b11101000 i
b11101000 t
b11101000 =
b11101000 K
b11101000 Y
b11101100 6
b11101100 g
b11101100 n
b11101100 $
b11101100 G
b11101100 ,
b11101100 l
b11101100 |
0!
#102000
b10 /
b10 `
b10 '
b10 !"
b111011 ]
14
13
b0 >
b0 O
b0 W
b11101100 =
b11101100 K
b11101100 Y
b1100011 X
b10 Z
b0 @
b0 I
b0 P
b0 ?
b0 H
b11101100 5
b11101100 i
b11101100 t
b11 1
b11 U
b0 8
b0 M
b10 N
b10 9
b10 L
b0 +
b0 }
b0 )
b0 R
b0 e
b0 f
b11 b
b10 c
b10001000 C
b10001000 y
b1010010010100000011 &
b1010010010100000011 a
b10000100 :
b10000100 T
b10000100 u
b10000100 v
b10001000 B
b10001000 r
b10001000 s
b10000100 F
b10000100 Q
b10000100 j
b10000100 o
1!
#104000
b0 '
b0 !"
b0 /
b0 `
b0 ]
b10 5
b10 i
b10 t
b10 =
b10 K
b10 Y
b10 6
b10 g
b10 n
b10 $
b10 G
b10 ,
b10 l
b10 |
0!
#106000
b1 '
b1 !"
04
03
b11 >
b11 O
b11 W
b11011 X
b0 Z
b1 =
b1 K
b1 Y
b0 6
b0 g
b0 n
b1 ?
b1 H
b1 5
b1 i
b1 t
b10011 1
b10011 U
b0 N
b0 9
b0 L
b0 $
b0 G
b0 ,
b0 l
b0 |
b0 -
b0 {
b11011000 *
b11011000 \
b11011000 ~
b1 +
b1 }
b1011 0
b1011 z
b1 )
b1 R
b1 e
b1 f
b10011 b
b0 c
b10001100 C
b10001100 y
b100000000010110010011 &
b100000000010110010011 a
b10001001 :
b10001001 T
b10001001 u
b10001001 v
b10001100 B
b10001100 r
b10001100 s
b10001000 F
b10001000 Q
b10001000 j
b10001000 o
1!
#108000
0!
#110000
b1 @
b1 I
b1 P
b1 '
b1 !"
b10 >
b10 O
b10 W
0<
b10001 X
b1000 N
b1 =
b1 K
b1 Y
b10 6
b10 g
b10 n
b1 ?
b1 H
b10 5
b10 i
b10 t
b110011 1
b110011 U
b100000 8
b100000 M
b10 $
b10 G
b10 ,
b10 l
b10 |
b1010 -
b1010 {
b1 *
b1 \
b1 ~
b1011 +
b1011 }
b1010 0
b1010 z
b0 )
b0 R
b0 e
b0 f
b110011 b
b10010000 C
b10010000 y
b1000000101101010000010100110011 &
b1000000101101010000010100110011 a
b10001100 :
b10001100 T
b10001100 u
b10001100 v
b10010000 B
b10010000 r
b10010000 s
b10001100 F
b10001100 Q
b10001100 j
b10001100 o
1!
#112000
b0 '
b0 !"
1A
b1 5
b1 i
b1 t
b0 =
b0 K
b0 Y
b1 6
b1 g
b1 n
b1 $
b1 G
b1 ,
b1 l
b1 |
0!
#114000
b10010100 '
b10010100 !"
b1 w
1k
b11 7
b11 V
b1 >
b1 O
b1 W
12
0A
b1100001101 X
b11 Z
1[
b1011 @
b1011 I
b1011 P
b10010000 6
b10010000 g
b10010000 n
b0 ?
b0 H
b0 5
b0 i
b0 t
b1101111 1
b1101111 U
b1111011 8
b1111011 M
b1111 N
b111 9
b111 L
b0 $
b0 G
b0 ,
b0 l
b0 |
b11111 -
b11111 {
b0 *
b0 \
b0 ~
b10001 +
b10001 }
b1 0
b1 z
b11111111111111111111111101110000 )
b11111111111111111111111101110000 R
b11111111111111111111111101110000 e
b11111111111111111111111101110000 f
b1101111 b
b111 c
b0 C
b0 y
b11110111000111111111000011101111 &
b11110111000111111111000011101111 a
b0 :
b0 T
b0 u
b0 v
b10010100 B
b10010100 r
b10010100 s
b10010000 F
b10010000 Q
b10010000 j
b10010000 o
1!
#116000
0!
#118000
b0 w
0k
b11111111111111111111111111100000 ?
b11111111111111111111111111100000 H
b110000 ]
b0 7
b0 V
b11 >
b11 O
b11 W
02
1<
b11000000 =
b11000000 K
b11000000 Y
b11011 X
b0 Z
0[
b0 @
b0 I
b0 P
b100 C
b100 y
b10011 1
b10011 U
b1111111 8
b1111111 M
b1000 N
b0 9
b0 L
b11100000 $
b11100000 G
b11100000 ,
b11100000 l
b11100000 |
b10 -
b10 {
b0 +
b0 }
b10 0
b10 z
b11111111111111111111111111100000 )
b11111111111111111111111111100000 R
b11111111111111111111111111100000 e
b11111111111111111111111111100000 f
b10011 b
b0 c
b11000000 5
b11000000 i
b11000000 t
b11000000 '
b11000000 !"
b11111110000000010000000100010011 &
b11111110000000010000000100010011 a
b11111111111111111111111111100000 :
b11111111111111111111111111100000 T
b11111111111111111111111111100000 u
b11111111111111111111111111100000 v
b11100000 6
b11100000 g
b11100000 n
b100 B
b100 r
b100 s
b0 F
b0 Q
b0 j
b0 o
1!
#120000
b10100000 '
b10100000 !"
b101000 ]
b10100000 5
b10100000 i
b10100000 t
b10100000 =
b10100000 K
b10100000 Y
b11000000 6
b11000000 g
b11000000 n
b11000000 $
b11000000 G
b11000000 ,
b11000000 l
b11000000 |
0!
